\relax 
\providecommand\hyper@newdestlabel[2]{}
\catcode `"\active 
\catcode `-\active 
\providecommand\HyperFirstAtBeginDocument{\AtBeginDocument}
\HyperFirstAtBeginDocument{\ifx\hyper@anchor\@undefined
\global\let\oldcontentsline\contentsline
\gdef\contentsline#1#2#3#4{\oldcontentsline{#1}{#2}{#3}}
\global\let\oldnewlabel\newlabel
\gdef\newlabel#1#2{\newlabelxx{#1}#2}
\gdef\newlabelxx#1#2#3#4#5#6{\oldnewlabel{#1}{{#2}{#3}}}
\AtEndDocument{\ifx\hyper@anchor\@undefined
\let\contentsline\oldcontentsline
\let\newlabel\oldnewlabel
\fi}
\fi}
\global\let\hyper@last\relax 
\gdef\HyperFirstAtBeginDocument#1{#1}
\providecommand\HyField@AuxAddToFields[1]{}
\providecommand\HyField@AuxAddToCoFields[2]{}
\select@language{czech}
\@writefile{toc}{\select@language{czech}}
\@writefile{lof}{\select@language{czech}}
\@writefile{lot}{\select@language{czech}}
\@writefile{toc}{\contentsline {chapter}{\IeC {\'U}vod}{6}{chapter*.5}}
\citation{wiki_java}
\citation{lwjgl}
\citation{wiki_lwjgl}
\citation{slick}
\@writefile{toc}{\contentsline {chapter}{\numberline {1}Pou\IeC {\v z}it\IeC {\'e} technologie}{7}{chapter.1}}
\@writefile{lof}{\addvspace {10\p@ }}
\@writefile{lot}{\addvspace {10\p@ }}
\@writefile{toc}{\contentsline {section}{\numberline {1.1}Java}{7}{section.1.1}}
\@writefile{toc}{\contentsline {section}{\numberline {1.2}LWGLJ}{7}{section.1.2}}
\@writefile{toc}{\contentsline {section}{\numberline {1.3}Slick2D}{7}{section.1.3}}
\citation{marte}
\citation{wiki_netbeans}
\@writefile{toc}{\contentsline {subsection}{\numberline {1.3.1}StateBaseGame}{8}{subsection.1.3.1}}
\@writefile{toc}{\contentsline {section}{\numberline {1.4}MarteEngine}{8}{section.1.4}}
\@writefile{toc}{\contentsline {section}{\numberline {1.5}Entity}{8}{section.1.5}}
\@writefile{toc}{\contentsline {section}{\numberline {1.6}NetBeans IDE}{8}{section.1.6}}
\@writefile{lof}{\contentsline {figure}{\numberline {1.1}{\ignorespaces V\IeC {\'y}vojov\IeC {\'e} prost\IeC {\v r}ed\IeC {\'\i } NetBeans}}{9}{figure.1.1}}
\newlabel{img.Obrazek_1.png}{{1.1}{9}{Vývojové prostředí NetBeans}{figure.1.1}{}}
\@writefile{toc}{\contentsline {section}{\numberline {1.7}Pr\IeC {\'a}ce s~akvarely}{9}{section.1.7}}
\@writefile{lof}{\contentsline {figure}{\numberline {1.2}{\ignorespaces Ru\IeC {\v c}n\IeC {\v e} malovan\IeC {\'e} menu, p\IeC {\v r}ed zdigitalizov\IeC {\'a}n\IeC {\'\i }m}}{10}{figure.1.2}}
\newlabel{img.Obrazek_2.png}{{1.2}{10}{Ručně malované menu, před zdigitalizováním}{figure.1.2}{}}
\@writefile{toc}{\contentsline {section}{\numberline {1.8}BitmapCombine}{10}{section.1.8}}
\@writefile{toc}{\contentsline {subsection}{\numberline {1.8.1}Spritesheet}{10}{subsection.1.8.1}}
\@writefile{lof}{\contentsline {figure}{\numberline {1.3}{\ignorespaces Spritesheet LunaAnim}}{11}{figure.1.3}}
\newlabel{img.LunaAnim.jpg}{{1.3}{11}{Spritesheet LunaAnim}{figure.1.3}{}}
\citation{super_mario}
\@writefile{toc}{\contentsline {chapter}{\numberline {2}O h\IeC {\v r}e}{12}{chapter.2}}
\@writefile{lof}{\addvspace {10\p@ }}
\@writefile{lot}{\addvspace {10\p@ }}
\@writefile{lof}{\contentsline {figure}{\numberline {2.1}{\ignorespaces Super Mario\cite  {super_mario}}}{12}{figure.2.1}}
\newlabel{img.mario.jpg}{{2.1}{12}{Super Mario\cite {super_mario}}{figure.2.1}{}}
\citation{wiki_kocka}
\citation{wiki_intro}
\@writefile{lof}{\contentsline {figure}{\numberline {2.2}{\ignorespaces Re\IeC {\'a}ln\IeC {\'a} p\IeC {\v r}edloha pro Lunu}}{13}{figure.2.2}}
\newlabel{img.Obrazek_3.png}{{2.2}{13}{Reálná předloha pro Lunu}{figure.2.2}{}}
\@writefile{toc}{\contentsline {section}{\numberline {2.1}Ko\IeC {\v c}ka}{13}{section.2.1}}
\@writefile{toc}{\contentsline {section}{\numberline {2.2}Intro}{13}{section.2.2}}
\@writefile{lof}{\contentsline {figure}{\numberline {2.3}{\ignorespaces Jeden z~obr\IeC {\'a}zk\IeC {\r u} intra}}{14}{figure.2.3}}
\newlabel{img.Obrazek_4.png}{{2.3}{14}{Jeden z~obrázků intra}{figure.2.3}{}}
\@writefile{toc}{\contentsline {section}{\numberline {2.3}Ovl\IeC {\'a}d\IeC {\'a}n\IeC {\'\i } hry}{15}{section.2.3}}
\@writefile{toc}{\contentsline {section}{\numberline {2.4}\IeC {\'U}kol hry}{16}{section.2.4}}
\@writefile{toc}{\contentsline {section}{\numberline {2.5}LevelManager}{16}{section.2.5}}
\@writefile{lof}{\contentsline {figure}{\numberline {2.4}{\ignorespaces Zdrojov\IeC {\'y} textov\IeC {\'y} soubor 2.~levelu}}{17}{figure.2.4}}
\newlabel{img.Obrazek_5.png}{{2.4}{17}{Zdrojový textový soubor 2.~levelu}{figure.2.4}{}}
\@writefile{lof}{\contentsline {figure}{\numberline {2.5}{\ignorespaces Screenshot vyrenderovan\IeC {\'e}ho 2. levelu}}{17}{figure.2.5}}
\newlabel{img.screenshot_l2_complete.png}{{2.5}{17}{Screenshot vyrenderovaného 2. levelu}{figure.2.5}{}}
\@writefile{toc}{\contentsline {section}{\numberline {2.6}Kolizn\IeC {\'\i } syst\IeC {\'e}m}{17}{section.2.6}}
\@writefile{lof}{\contentsline {figure}{\numberline {2.6}{\ignorespaces Screenshot se zobrazen\IeC {\'y}mi hitboxy}}{18}{figure.2.6}}
\newlabel{img.kolize.png}{{2.6}{18}{Screenshot se zobrazenými hitboxy}{figure.2.6}{}}
\@writefile{lof}{\contentsline {figure}{\numberline {2.7}{\ignorespaces Uk\IeC {\'a}zka k\IeC {\'o}du s~p\IeC {\v r}\IeC {\'\i }pravou hitbox\IeC {\r u} pro bloky}}{18}{figure.2.7}}
\newlabel{minted.udelej_hitboxy.png}{{2.7}{18}{Ukázka kódu s~přípravou hitboxů pro bloky}{figure.2.7}{}}
\@writefile{toc}{\contentsline {chapter}{\numberline {3}K\IeC {\'o}d}{19}{chapter.3}}
\@writefile{lof}{\addvspace {10\p@ }}
\@writefile{lot}{\addvspace {10\p@ }}
\@writefile{toc}{\contentsline {section}{\numberline {3.1}Bal\IeC {\'\i }\IeC {\v c}ek core}{19}{section.3.1}}
\@writefile{toc}{\contentsline {subsection}{\numberline {3.1.1}StartGameLuna}{19}{subsection.3.1.1}}
\@writefile{toc}{\contentsline {section}{\numberline {3.2}Bal\IeC {\'\i }\IeC {\v c}ek core.states}{19}{section.3.2}}
\@writefile{toc}{\contentsline {subsection}{\numberline {3.2.1}GameLuna}{19}{subsection.3.2.1}}
\@writefile{lof}{\contentsline {figure}{\numberline {3.1}{\ignorespaces Uk\IeC {\'a}zka k\IeC {\'o}du metody init z~GameLuna}}{20}{figure.3.1}}
\newlabel{minted.init_gameluna.png}{{3.1}{20}{Ukázka kódu metody init z~GameLuna}{figure.3.1}{}}
\@writefile{toc}{\contentsline {subsection}{\numberline {3.2.2}DeadLuna}{20}{subsection.3.2.2}}
\@writefile{lof}{\contentsline {figure}{\numberline {3.2}{\ignorespaces Pozad\IeC {\'\i } deadLuna}}{21}{figure.3.2}}
\newlabel{img.Dead.png}{{3.2}{21}{Pozadí deadLuna}{figure.3.2}{}}
\@writefile{toc}{\contentsline {subsection}{\numberline {3.2.3}IntroLuna}{21}{subsection.3.2.3}}
\@writefile{toc}{\contentsline {subsection}{\numberline {3.2.4}LevelsLuna}{21}{subsection.3.2.4}}
\@writefile{toc}{\contentsline {subsection}{\numberline {3.2.5}MenuLuna}{22}{subsection.3.2.5}}
\@writefile{toc}{\contentsline {subsection}{\numberline {3.2.6}PauseLuna}{22}{subsection.3.2.6}}
\@writefile{lof}{\contentsline {figure}{\numberline {3.3}{\ignorespaces Uk\IeC {\'a}zka k\IeC {\'o}du metody init z~GameLuna}}{22}{figure.3.3}}
\newlabel{minted.reakce_pause.png}{{3.3}{22}{Ukázka kódu metody init z~GameLuna}{figure.3.3}{}}
\@writefile{toc}{\contentsline {subsection}{\numberline {3.2.7}CongratulationLuna}{22}{subsection.3.2.7}}
\@writefile{toc}{\contentsline {section}{\numberline {3.3}Bal\IeC {\'\i }\IeC {\v c}ek core.objects}{22}{section.3.3}}
\@writefile{toc}{\contentsline {subsection}{\numberline {3.3.1}Background}{23}{subsection.3.3.1}}
\@writefile{toc}{\contentsline {subsection}{\numberline {3.3.2}Block}{23}{subsection.3.3.2}}
\@writefile{toc}{\contentsline {subsection}{\numberline {3.3.3}Player}{23}{subsection.3.3.3}}
\@writefile{toc}{\contentsline {subsection}{\numberline {3.3.4}Finish}{24}{subsection.3.3.4}}
\@writefile{toc}{\contentsline {chapter}{\numberline {4}Z\IeC {\'a}v\IeC {\v e}r}{25}{chapter.4}}
\@writefile{lof}{\addvspace {10\p@ }}
\@writefile{lot}{\addvspace {10\p@ }}
\citation{super_mario}
\bibstyle{czechiso}
\bibdata{mk_doku_citace}
\@writefile{toc}{\contentsline {chapter}{\numberline {A}Seznam obr\'azk\r {u}}{26}{appendix.A}}
\@writefile{lof}{\addvspace {10\p@ }}
\@writefile{lot}{\addvspace {10\p@ }}
\bibcite{lwjgl}{1}
\bibcite{super_mario}{2}
\bibcite{marte}{3}
\bibcite{slick}{4}
\bibcite{wiki_intro}{5}
\bibcite{wiki_java}{6}
\bibcite{wiki_kocka}{7}
\bibcite{wiki_lwjgl}{8}
\bibcite{wiki_netbeans}{9}
\gdef\minted@oldcachelist{,
  default-pyg-prefix.pygstyle,
  default.pygstyle,
  D90B0EA5EF316F851A49F39B00F2AD3F283379E34253DB5AFBD0B3D95D228953.pygtex,
  18183D57E21EA22818B634E9283B686E283379E34253DB5AFBD0B3D95D228953.pygtex,
  ACB8679F9D817BB1DAE583907B02C753283379E34253DB5AFBD0B3D95D228953.pygtex}
\@writefile{toc}{\contentsline {chapter}{\numberline {B}Zdroje}{27}{appendix.B}}
\@writefile{lof}{\addvspace {10\p@ }}
\@writefile{lot}{\addvspace {10\p@ }}
